﻿TargetImage,PracticeLoop.thisRepN,PracticeLoop.thisTrialN,PracticeLoop.thisN,PracticeLoop.thisIndex,thisRow.t,notes,welcome.started,Instruction.started,spacebar_welcome.started,welcome.stopped,spacebar_welcome.keys,spacebar_welcome.rt,spacebar_welcome.duration,instructions_general.started,instruction_general.started,general_instruction_space_bar.started,instructions_general.stopped,general_instruction_space_bar.keys,general_instruction_space_bar.rt,general_instruction_space_bar.duration,instruction_shape.started,instruct_shape.started,instruct_space_bar.started,instruct_shape_square.started,instruct_shape_plus.started,instruct_shape_cross.started,instruction_shape.stopped,instruct_space_bar.keys,instruct_space_bar.rt,instruct_space_bar.duration,trial.started,visual_reminder_square.started,visual_reminder_plus.started,visual_reminder_cross.started,left_far_tile.started,left_mid_tile.started,right_mid_tile.started,right_far_tile.started,target_image.started,target_image.stopped,trial.stopped,keyboard_response.keys,keyboard_response.corr,keyboard_response.rt,keyboard_response.duration,trialRespTimes,practice_feedback.started,feedback_text.started,keyboard_response_feedback.started,practice_feedback.stopped,keyboard_response_feedback.keys,keyboard_response_feedback.rt,keyboard_response_feedback.duration,end_screen.started,end_screen_instruction.started,end_screen_space_bar.started,end_screen.stopped,end_screen_space_bar.keys,end_screen_space_bar.rt,end_screen_space_bar.duration,participant_ID,Experiement_ID,session_ID,run,age,sex,Left Handedness,Do you like the experiment,date,expName,psychopyVersion,frameRate,expStart,
,,,,,,,0.11261370000102033,0.12173400000028778,0.12173400000028778,3.330837400000746,space,3.205294400000639,None,,,,,,,,,,,,,,,,,,,,,,,,,,,,,,,,,,,,,,,,,,,,,,,,T1,1,1,1,22,1,False,Yes,2024-02-14_11h08.02.470,choich_rtt,2023.2.3,59.93213285250129,2024-02-14 11h08.28.578516 +0100,
,,,,,,,,,,,,,,3.330862099999649,3.3469559000004665,3.3469559000004665,4.597915500000454,space,1.2390266000002157,None,,,,,,,,,,,,,,,,,,,,,,,,,,,,,,,,,,,,,,,,,T1,1,1,1,22,1,False,Yes,2024-02-14_11h08.02.470,choich_rtt,2023.2.3,59.93213285250129,2024-02-14 11h08.28.578516 +0100,
,,,,,,,,,,,,,,,,,,,,,4.597946300000331,4.649429700000837,4.649429700000837,4.649429700000837,4.649429700000837,4.649429700000837,5.88201140000092,space,1.2171007999986614,None,,,,,,,,,,,,,,,,,,,,,,,,,,,,,,,T1,1,1,1,22,1,False,Yes,2024-02-14_11h08.02.470,choich_rtt,2023.2.3,59.93213285250129,2024-02-14 11h08.28.578516 +0100,
../../stimuli/shapes/target_plus.jpg,0,0,0,4,5.997375500000999,,,,,,,,,,,,,,,,,,,,,,,,,,5.910871300000508,5.997375500000999,5.997375500000999,5.997375500000999,6.39724650000062,6.39724650000062,6.39724650000062,6.39724650000062,7.480404800000542,7.6809173000001465,16.748149600000033,v,0,10.739808300000732,None,9.139808300000732,16.75088180000057,16.77191700000003,16.77191700000003,19.164140299999417,space,2.38073280000026,None,,,,,,,,T1,1,1,1,22,1,False,Yes,2024-02-14_11h08.02.470,choich_rtt,2023.2.3,59.93213285250129,2024-02-14 11h08.28.578516 +0100,
../../stimuli/shapes/target_square.jpg,0,1,1,2,19.221726300000228,,,,,,,,,,,,,,,,,,,,,,,,,,19.165171399999963,19.221726300000228,19.221726300000228,19.221726300000228,19.66395729999931,19.66395729999931,19.66395729999931,19.66395729999931,20.563774100000956,20.76361850000103,21.91562089999934,v,1,2.682938199999626,None,1.2829381999996259,21.91630880000048,21.930998499999987,21.930998499999987,23.499828199999683,space,1.564034700000775,None,,,,,,,,T1,1,1,1,22,1,False,Yes,2024-02-14_11h08.02.470,choich_rtt,2023.2.3,59.93213285250129,2024-02-14 11h08.28.578516 +0100,
../../stimuli/shapes/target_cross.jpg,0,2,2,3,23.56433300000026,,,,,,,,,,,,,,,,,,,,,,,,,,23.500708499999746,23.56433300000026,23.56433300000026,23.56433300000026,24.013907700000345,24.013907700000345,24.013907700000345,24.013907700000345,24.51289850000103,24.713982600000236,25.581966499999908,c,1,2.004601000000548,None,1.004601000000548,25.58249640000031,25.599859399999332,25.599859399999332,26.3647562999995,space,0.7581828999991558,None,,,,,,,,T1,1,1,1,22,1,False,Yes,2024-02-14_11h08.02.470,choich_rtt,2023.2.3,59.93213285250129,2024-02-14 11h08.28.578516 +0100,
../../stimuli/shapes/target_cross.jpg,0,3,3,1,26.416162100000292,,,,,,,,,,,,,,,,,,,,,,,,,,26.365364999999656,26.416162100000292,26.416162100000292,26.416162100000292,26.88022120000096,26.88022120000096,26.88022120000096,26.88022120000096,27.379748600000312,27.58069330000035,28.28276310000001,c,1,1.8640771000009408,None,0.8640771000009408,28.28336549999949,28.297231099999408,28.297231099999408,29.648963999999978,space,1.34803649999958,None,,,,,,,,T1,1,1,1,22,1,False,Yes,2024-02-14_11h08.02.470,choich_rtt,2023.2.3,59.93213285250129,2024-02-14 11h08.28.578516 +0100,
../../stimuli/shapes/target_plus.jpg,0,4,4,0,29.69746909999958,,,,,,,,,,,,,,,,,,,,,,,,,,29.649813500000164,29.69746909999958,29.69746909999958,29.69746909999958,30.163793199999418,30.163793199999418,30.163793199999418,30.163793199999418,31.262983599999643,31.463188400000945,33.063559399999576,b,1,3.3524982999988424,None,1.7524982999988423,33.063806100000875,33.07937409999977,33.07937409999977,34.28139010000086,space,1.1864932000007684,None,,,,,,,,T1,1,1,1,22,1,False,Yes,2024-02-14_11h08.02.470,choich_rtt,2023.2.3,59.93213285250129,2024-02-14 11h08.28.578516 +0100,
../../stimuli/shapes/target_square.jpg,0,5,5,5,34.34358070000053,,,,,,,,,,,,,,,,,,,,,,,,,,34.28221920000033,34.34358070000053,34.34358070000053,34.34358070000053,34.79668180000044,34.79668180000044,34.79668180000044,34.79668180000044,35.49584750000031,35.6969167999996,36.498364400000355,b,0,2.139000200000737,None,0.9390002000007371,36.498787900000025,36.51336149999952,36.51336149999952,37.69842579999931,space,1.1683192000000417,None,,,,,,,,T1,1,1,1,22,1,False,Yes,2024-02-14_11h08.02.470,choich_rtt,2023.2.3,59.93213285250129,2024-02-14 11h08.28.578516 +0100,
,,,,,,,,,,,,,,,,,,,,,,,,,,,,,,,,,,,,,,,,,,,,,,,,,,,,,,37.69898120000107,37.71261030000096,37.71261030000096,38.76436250000006,space,1.0378938000012567,None,T1,1,1,1,22,1,False,Yes,2024-02-14_11h08.02.470,choich_rtt,2023.2.3,59.93213285250129,2024-02-14 11h08.28.578516 +0100,
